-------------------------------------------------------------------------------
Test set: fds.tp1.AppTest
-------------------------------------------------------------------------------
Tests run: 1, Failures: 0, Errors: 0, Skipped: 0, Time elapsed: 0.084 sec - in fds.tp1.AppTest
